{
    "anforderung": [
        {
            "anfordId": "1",
            "name": "anf1",
           "proId":"1"
           
        },

        {
            "anfordId": "2",
            "name": "anf2",
            "proId":"2"
            
        },
        {
            "anfordId": "3",
           "name": "anf3",
            "proId":"3"
            
        },

        {
            "anfordId": "4",
           "name": "anf4",
           "proId":"4"
            
        }
    ]
}
